Cancer Medicine Data
…
  # Removing all information in the parenthensis.
  mutate(Uses = str_replace_all(Uses,
                                "\\(.*?\\)", 
                                ""))

# Printing only unique, partially cleaned "Uses" data
clean_data |> 
  select(Uses) |>
  distinct() |>
  print()

# A tibble: 686 × 1
   Uses                                                                         
   <chr>                                                                        
 1 "Cancer of colon and rectum Non-small cell lung cancer Kidney cancer Brain t…
 2 " Bacterial infections"                                                      
 3 " Cough with mucus"                                                          
 4 " Gastroesophageal reflux disease  Peptic ulcer disease"                     
 5 " Sneezing and runny nose due to allergies Allergic conditions"              
 6 " Allergic conditions Respiratory disease with excessive mucus Skin conditio…
 7 "Alzheimer's disease"                                                        
 8 " Anxiety Skin conditions with inflammation & itching"                       
 9 " Piles"                                                                     
10 " Sneezing and runny nose due to allergies"                                  
# ℹ 676 more rows
…
clean_data <- clean_data |>
  select(-Uses)

Making the API Variables

Likewise, the variable Medicine Name contains multiple values in each cell. It carries information about both the name of the drug, the amount of drug administrated, and the administration route. This information should be split into separate columns.

# Printing the variabe "Medicine Name"
clean_data |>
  select('Medicine Name') 

# A tibble: 11,825 × 1
   `Medicine Name`         
   <chr>                   
 1 Avastin 400mg Injection 
 2 Augmentin 625 Duo Tablet
 3 Azithral 500 Tablet     
 4 Ascoril LS Syrup        
 5 Aciloc 150 Tablet       
 6 Allegra 120mg Tablet    
 7 Avil 25 Tablet          
 8 Aricep 5 Tablet         
 9 Amoxyclav 625 Tablet    
10 Atarax 25mg Tablet      
# ℹ 11,815 more rows
…
# Filtering the observations containing "Other" in administration type.
clean_data |>
  select(`Medicine Name`, 
         Administration_type) |>
  filter(str_detect(Administration_type, 
                    "Other")) |>
  print()

# A tibble: 995 × 2
   `Medicine Name`            Administration_type
   <chr>                      <chr>              
 1 Anasure 5% Solution        Other              
 2 Aerocort Forte Rotacap     Other              
 3 Actrapid 100 IU/ml Flexpen Other              
 4 AF-K Lotion                Other              
 5 Addphos Granules           Other              
 6 AD 10mg Sachet             Other              
 7 Acnesol 1% solution        Other              
 8 Apgel                      Other              
 9 Asthalin Rotacaps          Other              
10 Abhayrab-PF Vaccine        Other              
# ℹ 985 more rows
…
# Filtering the observations containing "Other" in administration type to see how many have not been types have not been decided.
clean_data |>
  select(`Medicine Name`, 
         Administration_type) |>
  filter(str_detect(Administration_type, 
                    "Other")) |>
  print()

# A tibble: 336 × 2
   `Medicine Name`                Administration_type
   <chr>                          <chr>              
 1 Aerocort Forte Rotacap         Other              
 2 Actrapid 100 IU/ml Flexpen     Other              
 3 Addphos Granules               Other              
 4 AD 10mg Sachet                 Other              
 5 Asthalin Rotacaps              Other              
 6 Airtec FB 400 Instacap         Other              
 7 Airtec FB 200 Instacap         Other              
 8 Aplevant 0.75mg Pre-filled Pen Other              
 9 Azithral KidTab                Other              
10 Airtec SF 250 Instacap         Other              
# ℹ 326 more rows
…
Firstly, the dimensionality of the data set is investigated to get an idea of its size.

The number of variables is shown and a view of the data given.

# Checking for dimensionality of dataset 
cancer_data |> 
  dim_desc()

[1] "[155,424 x 20]"

# Showing the data 
cancer_data |> 
  print()

# A tibble: 155,424 × 20
      ID Medicine_Name Manufacturer       Administration_type Count_Side_Effects
   <dbl> <chr>         <chr>              <chr>                            <dbl>
 1     1 Avastin       Roche Products In… Injection                            9
 2     1 Avastin       Roche Products In… Injection                            9
 3     1 Avastin       Roche Products In… Injection                            9
 4     1 Avastin       Roche Products In… Injection                            9
 5     1 Avastin       Roche Products In… Injection                            9
 6     1 Avastin       Roche Products In… Injection                            9
 7     1 Avastin       Roche Products In… Injection                            9
 8     1 Avastin       Roche Products In… Injection                            9
 9     1 Avastin       Roche Products In… Injection                            9
10     1 Avastin       Roche Products In… Injection                            9
# ℹ 155,414 more rows
# ℹ 15 more variables: Count_API <dbl>, Count_Application <dbl>,
#   Classification_Review <chr>, Application_number <chr>,
#   Application_type <chr>, API_name_number <chr>, API_name <chr>,
#   API_amount_number <chr>, API_amount <dbl>, API_unit_number <chr>,
#   API_unit <chr>, Review_level <chr>, `Review_%` <dbl>,
#   Side_Effect_number <chr>, Side_Effect_type <chr>
…
# Number of different cancer types
unique_cancer_rows |>
  dim_desc()

[1] "[23 x 1]"

# Overview of the cancer types
unique_cancer_rows |>
  print()

# A tibble: 23 × 1
   Application_type                 
   <chr>                            
 1 Cancer of colon and rectum       
 2 Nonsmall cell lung cancer        
 3 Kidney cancer                    
 4 Ovarian cancer                   
 5 Cervical cancer                  
 6 Breast cancer                    
 7 Anemia due to cancer chemotherapy
 8 Prostate cancer                  
 9 Pancreatic cancer                
10 Lung cancer                      
# ℹ 13 more rows
…
# Number of different drugs
unique_application |>
  dim_desc()

[1] "[49 x 1]"

# Viewing the different drug names
unique_application |>
  print()

# A tibble: 49 × 1
   Application_type                    
   <chr>                               
 1 Cancer of colon and rectum          
 2 Nonsmall cell lung cancer           
 3 Kidney cancer                       
 4 Brain tumor                         
 5 Ovarian cancer                      
 6 Cervical cancer                     
 7 Breast cancer                       
 8 Anemia due to chronic kidney disease
 9 Anemia due to cancer chemotherapy   
10 Prostate cancer                     
# ℹ 39 more rows
…
# Number of different drugs
unique_drugs |>
  dim_desc()

[1] "[131 x 1]"

# Viewing the different drug names
unique_drugs |>
  print()

# A tibble: 131 × 1
   Medicine_Name
   <chr>        
 1 Avastin      
 2 Armotraz     
 3 Altraz       
 4 Anfoe        
 5 Abirapro     
 6 Anabrez      
 7 Arimidex     
 8 Advacan      
 9 Anort        
10 Biotrexate   
# ℹ 121 more rows
…
